Open Data Kit Quality Control Workflows
…
## Retrieve test data
anthro <- odata_submission_get()

## View data
anthro
```

---

### Access data in R using the `{ruODK}` package

```
## # A tibble: 25 × 24
##    id                start               end                 today               admin_team admin_date_survey   admin_location
##    <chr>             <dttm>              <dttm>              <dttm>              <chr>      <dttm>              <chr>         
##  1 uuid:cd765e1f-54… 2021-11-16 15:10:09 2021-11-16 15:25:32 2021-11-16 00:00:00 1          2021-11-19 00:00:00 1             
##  2 uuid:41eebbdd-27… 2021-11-16 15:14:24 2021-11-16 15:25:15 2021-11-16 00:00:00 1          2021-11-18 00:00:00 1             
##  3 uuid:9b5bb2dc-e2… 2021-11-16 14:59:33 2021-11-16 15:25:02 2021-11-16 00:00:00 1          2021-11-16 00:00:00 1             
##  4 uuid:d3e4412f-f1… 2021-11-16 14:58:31 2021-11-16 15:24:47 2021-11-16 00:00:00 1          2021-11-16 00:00:00 1             
##  5 uuid:b3fa396d-ca… 2021-11-16 14:57:32 2021-11-16 15:24:30 2021-11-16 00:00:00 1          2021-11-16 00:00:00 1             
##  6 uuid:3d64560b-91… 2021-11-16 14:56:39 2021-11-16 15:24:15 2021-11-16 00:00:00 1          2021-11-16 00:00:00 1             
##  7 uuid:75c5ed7e-e0… 2021-11-16 14:55:50 2021-11-16 15:23:58 2021-11-16 00:00:00 1          2021-11-16 00:00:00 1             
##  8 uuid:ee3870de-b1… 2021-11-16 14:54:46 2021-11-16 15:23:35 2021-11-16 00:00:00 1          2021-11-16 00:00:00 1             
##  9 uuid:b22ee844-f2… 2021-11-16 14:53:50 2021-11-16 15:23:20 2021-11-16 00:00:00 1          2021-11-16 00:00:00 1             
## 10 uuid:92d447aa-9a… 2021-11-16 15:16:38 2021-11-16 15:23:02 2021-11-16 00:00:00 1          2021-11-16 00:00:00 1             
## # … with 15 more rows, and 17 more variables: anthropometry_id <int>, anthropometry_age <int>, anthropometry_sex <chr>,
## #   anthropometry_weight <dbl>, anthropometry_height <dbl>, anthropometry_muac <int>, anthropometry_oedema <chr>,
## #   meta_instance_id <chr>, meta_instance_name <chr>, system_submission_date <chr>, system_submitter_id <chr>,
## #   system_submitter_name <chr>, system_attachments_present <int>, system_attachments_expected <int>, system_device_id <chr>,
## #   system_edits <int>, odata_context <chr>
```
…
---

### Perform data quality review/checks

```
## ==============================================================================================================================
## ==============================================================================================================================
## ==============================================================================================================================
```

```
## # A tibble: 25 × 14
##    team  date_survey         location    id   age sex   weight height  muac oedema age_days  wfaz   hfaz  wfhz
##    <chr> <dttm>              <chr>    <int> <int> <chr>  <dbl>  <dbl> <int> <chr>     <dbl> <dbl>  <dbl> <dbl>
##  1 1     2021-11-19 00:00:00 1           21    48 1       13.8   98     154 2         1461  -1.34  -1.27 -0.88
##  2 1     2021-11-18 00:00:00 1           23    36 2       13.9   95.5   148 2         1096.  0.03   0.12 -0.09
##  3 1     2021-11-16 00:00:00 1            9    13 1        8.3   73     136 2          396. -1.58  -1.62 -1.11
##  4 1     2021-11-16 00:00:00 1            8    13 1        8.1  999     124 2          396. -1.8  380.   NA   
##  5 1     2021-11-16 00:00:00 1            7    24 2        8     74.2   144 2          730. -3.07  -3.78 -1.33
##  6 1     2021-11-16 00:00:00 1            6    18 2        7.7   70.6   130 2          548. -2.4   -3.48 -0.82
##  7 1     2021-11-16 00:00:00 1            5    15 1        7.4   70     124 2          457. -3     -3.62 -1.61
##  8 1     2021-11-16 00:00:00 1            4    15 1        7.2   75.4   130 2          457. -3.23  -1.49 -3.57
##  9 1     2021-11-16 00:00:00 1            3    15 1        7.1   67.5   124 2          457. -3.34  -4.61 -1.25
## 10 1     2021-11-16 00:00:00 1           25    36 1       14.2   95.6   152 2         1096. -0.08  -0.13  0   
## # … with 15 more rows
```

---

### Perform data quality review/checks

```r
## Flag z-scores
anthro_flags <- anthro_zscores %>%
  flag_who(hlaz = "hfaz", waz = "wfaz", whlz = "wfhz")

anthro_flags
```

```
## # A tibble: 25 × 16
##    team  date_survey         location    id   age sex   weight height  muac oedema age_days  wfaz   hfaz  wfhz  flag
##    <chr> <dttm>              <chr>    <int> <int> <chr>  <dbl>  <dbl> <int> <chr>     <dbl> <dbl>  <dbl> <dbl> <dbl>
##  1 1     2021-11-19 00:00:00 1           21    48 1       13.8   98     154 2         1461  -1.34  -1.27 -0.88     0
##  2 1     2021-11-18 00:00:00 1           23    36 2       13.9   95.5   148 2         1096.  0.03   0.12 -0.09     0
##  3 1     2021-11-16 00:00:00 1            9    13 1        8.3   73     136 2          396. -1.58  -1.62 -1.11     0
##  4 1     2021-11-16 00:00:00 1            8    13 1        8.1  999     124 2          396. -1.8  380.   NA       NA
##  5 1     2021-11-16 00:00:00 1            7    24 2        8     74.2   144 2          730. -3.07  -3.78 -1.33     0
##  6 1     2021-11-16 00:00:00 1            6    18 2        7.7   70.6   130 2          548. -2.4   -3.48 -0.82     0
##  7 1     2021-11-16 00:00:00 1            5    15 1        7.4   70     124 2          457. -3     -3.62 -1.61     0
##  8 1     2021-11-16 00:00:00 1            4    15 1        7.2   75.4   130 2          457. -3.23  -1.49 -3.57     0
##  9 1     2021-11-16 00:00:00 1            3    15 1        7.1   67.5   124 2          457. -3.34  -4.61 -1.25     0
## 10 1     2021-11-16 00:00:00 1           25    36 1       14.2   95.6   152 2         1096. -0.08  -0.13  0        0
## # … with 15 more rows, and 1 more variable: flag_description <chr>
```
…
